%YAML 1.1
%TAG !u! tag:unity3d.com,2011:
--- !u!1 &7845484769721283204
GameObject:
  m_ObjectHideFlags: 0
  m_CorrespondingSourceObject: {fileID: 0}
  m_PrefabInstance: {fileID: 0}
  m_PrefabAsset: {fileID: 0}
  serializedVersion: 6
  m_Component:
  - component: {fileID: 3116646652718756483}
  - component: {fileID: 1072484551397069601}
  - component: {fileID: 1363826082869759664}
  m_Layer: 0
  m_Name: LevelsManager
  m_TagString: Untagged
  m_Icon: {fileID: 0}
  m_NavMeshLayer: 0
  m_StaticEditorFlags: 0
  m_IsActive: 1
--- !u!4 &3116646652718756483
Transform:
  m_ObjectHideFlags: 0
  m_CorrespondingSourceObject: {fileID: 0}
  m_PrefabInstance: {fileID: 0}
  m_PrefabAsset: {fileID: 0}
  m_GameObject: {fileID: 7845484769721283204}
  m_LocalRotation: {x: 0, y: 0, z: 0, w: 1}
  m_LocalPosition: {x: 0, y: 0, z: 0}
  m_LocalScale: {x: 1, y: 1, z: 1}
  m_Children: []
  m_Father: {fileID: 0}
  m_RootOrder: 0
  m_LocalEulerAnglesHint: {x: 0, y: 0, z: 0}
--- !u!114 &1072484551397069601
MonoBehaviour:
  m_ObjectHideFlags: 0
  m_CorrespondingSourceObject: {fileID: 0}
  m_PrefabInstance: {fileID: 0}
  m_PrefabAsset: {fileID: 0}
  m_GameObject: {fileID: 7845484769721283204}
  m_Enabled: 1
  m_EditorHideFlags: 0
  m_Script: {fileID: 11500000, guid: 87d66414aa159d44581115f3fe5caa04, type: 3}
  m_Name: 
  m_EditorClassIdentifier: 
  CanShowPauseMenu: 0
  PlayableLevelsList:
  - {fileID: 11400000, guid: 35d385a592cb6de43ab71fa1dfca3031, type: 2}
  - {fileID: 11400000, guid: db48de1b98d66074cab993a829a00366, type: 2}
  - {fileID: 11400000, guid: a154989fef58ebb4fabb3ea75d14002d, type: 2}
  - {fileID: 11400000, guid: 3b5682a382afd1f4f88c91d0decefeee, type: 2}
  _menuLevel: {fileID: 11400000, guid: 745999702625b504584e58e35c353216, type: 2}
--- !u!114 &1363826082869759664
MonoBehaviour:
  m_ObjectHideFlags: 0
  m_CorrespondingSourceObject: {fileID: 0}
  m_PrefabInstance: {fileID: 0}
  m_PrefabAsset: {fileID: 0}
  m_GameObject: {fileID: 7845484769721283204}
  m_Enabled: 1
  m_EditorHideFlags: 0
  m_Script: {fileID: 11500000, guid: a36b8be99b8bbd84680212545625287c, type: 3}
  m_Name: 
  m_EditorClassIdentifier: 
